{"photos":{"page":1,"pages":50,"perpage":20,"total":1000,"photo":[{"id":"52396400507","owner":"67181123@N05","secret":"d4fcaeed33","server":"65535","farm":66,"title":"Taquita cutie pie \ud83d\udc95\ud83d\udc95","ispublic":1,"isfriend":0,"isfamily":0,"url_s":"https:\/\/live.staticflickr.com\/65535\/52396400507_d4fcaeed33_m.jpg","height_s":240,"width_s":168},{"id":"52396400712","owner":"154440982@N02","secret":"7fce72752d","server":"65535","farm":66,"title":"P1020860","ispublic":1,"isfriend":0,"isfamily":0,"url_s":"https:\/\/live.staticflickr.com\/65535\/52396400712_7fce72752d_m.jpg","height_s":240,"width_s":160},{"id":"52396401277","owner":"126585160@N05","secret":"931727c98c","server":"65535","farm":66,"title":"20040302-354.jpg","ispublic":1,"isfriend":0,"isfamily":0,"url_s":"https:\/\/live.staticflickr.com\/65535\/52396401277_931727c98c_m.jpg","height_s":240,"width_s":156},{"id":"52396401452","owner":"168990297@N08","secret":"64d171a225","server":"65535","farm":66,"title":"Operata 2022-10-01","ispublic":1,"isfriend":0,"isfamily":0,"url_s":"https:\/\/live.staticflickr.com\/65535\/52396401452_64d171a225_m.jpg","height_s":240,"width_s":180},{"id":"52396910341","owner":"133970319@N03","secret":"829939e9b7","server":"65535","farm":66,"title":"2022-10-01_06-27-28","ispublic":1,"isfriend":0,"isfamily":0,"url_s":"https:\/\/live.staticflickr.com\/65535\/52396910341_829939e9b7_m.jpg","height_s":180,"width_s":240},{"id":"52396911386","owner":"190622906@N05","secret":"e72973ae91","server":"65535","farm":66,"title":"New Smart Roadster 452 interior wing mirror triangle several options","ispublic":1,"isfriend":0,"isfamily":0,"url_s":"https:\/\/live.staticflickr.com\/65535\/52396911386_e72973ae91_m.jpg","height_s":180,"width_s":240},{"id":"52396911426","owner":"37035302@N05","secret":"37f319c77e","server":"65535","farm":66,"title":"Sunset silhouette","ispublic":1,"isfriend":0,"isfamily":0,"url_s":"https:\/\/live.staticflickr.com\/65535\/52396911426_37f319c77e_m.jpg","height_s":240,"width_s":180},{"id":"52396911456","owner":"22473100@N04","secret":"467b5c87f6","server":"65535","farm":66,"title":"","ispublic":1,"isfriend":0,"isfamily":0,"url_s":"https:\/\/live.staticflickr.com\/65535\/52396911456_467b5c87f6_m.jpg","height_s":240,"width_s":180},{"id":"52396911711","owner":"12639178@N07","secret":"ff8d5ba4a2","server":"65535","farm":66,"title":"Gemeine Sumpfschwebfliege (Helophilus pendulus)","ispublic":1,"isfriend":0,"isfamily":0,"url_s":"https:\/\/live.staticflickr.com\/65535\/52396911711_ff8d5ba4a2_m.jpg","height_s":180,"width_s":240},{"id":"52396911766","owner":"80227840@N00","secret":"11e2e3d0e1","server":"65535","farm":66,"title":"Littlehampton","ispublic":1,"isfriend":0,"isfamily":0,"url_s":"https:\/\/live.staticflickr.com\/65535\/52396911766_11e2e3d0e1_m.jpg","height_s":240,"width_s":180},{"id":"52396911836","owner":"196382947@N04","secret":"cd9dd1d1d5","server":"65535","farm":66,"title":"r20220616_161752_1040","ispublic":1,"isfriend":0,"isfamily":0,"url_s":"https:\/\/live.staticflickr.com\/65535\/52396911836_cd9dd1d1d5_m.jpg","height_s":240,"width_s":96},{"id":"52397202744","owner":"43627070@N00","secret":"c1ece66a2b","server":"65535","farm":66,"title":"Tinkering is over due","ispublic":1,"isfriend":0,"isfamily":0,"url_s":"https:\/\/live.staticflickr.com\/65535\/52397202744_c1ece66a2b_m.jpg","height_s":180,"width_s":240},{"id":"52397203259","owner":"53029201@N03","secret":"5aa286566d","server":"65535","farm":66,"title":"L1005348.jpg","ispublic":1,"isfriend":0,"isfamily":0,"url_s":"https:\/\/live.staticflickr.com\/65535\/52397203259_5aa286566d_m.jpg","height_s":160,"width_s":240},{"id":"52397343060","owner":"42463857@N02","secret":"008b8f13d0","server":"65535","farm":66,"title":"IMG-20221001-WA0041","ispublic":1,"isfriend":0,"isfamily":0,"url_s":"https:\/\/live.staticflickr.com\/65535\/52397343060_008b8f13d0_m.jpg","height_s":240,"width_s":180},{"id":"52397343310","owner":"88750087@N08","secret":"75c8491900","server":"65535","farm":66,"title":"Dirtbags-151.jpg","ispublic":1,"isfriend":0,"isfamily":0,"url_s":"https:\/\/live.staticflickr.com\/65535\/52397343310_75c8491900_m.jpg","height_s":160,"width_s":240},{"id":"52397343660","owner":"196598046@N05","secret":"bcff5dcb1e","server":"65535","farm":66,"title":"A7C05075-01","ispublic":1,"isfriend":0,"isfamily":0,"url_s":"https:\/\/live.staticflickr.com\/65535\/52397343660_bcff5dcb1e_m.jpg","height_s":160,"width_s":240},{"id":"52397343730","owner":"21491339@N08","secret":"286ec8d9f0","server":"65535","farm":66,"title":"","ispublic":1,"isfriend":0,"isfamily":0,"url_s":"https:\/\/live.staticflickr.com\/65535\/52397343730_286ec8d9f0_m.jpg","height_s":180,"width_s":240},{"id":"52397408813","owner":"181821699@N02","secret":"7b2f8d3621","server":"65535","farm":66,"title":"St. Bene\u2019t\u2019s church, Cambridge","ispublic":1,"isfriend":0,"isfamily":0,"url_s":"https:\/\/live.staticflickr.com\/65535\/52397408813_7b2f8d3621_m.jpg","height_s":240,"width_s":180},{"id":"52397408948","owner":"96167924@N07","secret":"07067843b8","server":"65535","farm":66,"title":"","ispublic":1,"isfriend":0,"isfamily":0,"url_s":"https:\/\/live.staticflickr.com\/65535\/52397408948_07067843b8_m.jpg","height_s":135,"width_s":240},{"id":"52397409063","owner":"189346700@N08","secret":"8bd9815f83","server":"65535","farm":66,"title":"Making his appearance","ispublic":1,"isfriend":0,"isfamily":0,"url_s":"https:\/\/live.staticflickr.com\/65535\/52397409063_8bd9815f83_m.jpg","height_s":160,"width_s":240}]},"stat":"ok"}